^C:\PROGRAM FILES (X86)\REFERENCE ASSEMBLIES\MICROSOFT\FRAMEWORK\.NETFRAMEWORK\V4.6.1\MSCORLIB.DLL
E:\PROJELERRR\N_ZOOM\N_ZOOM\X64\DEBUG\N_ZOOM.TLOG\METAGEN.WRITE.1.TLOG
^C:\PROGRAM FILES (X86)\REFERENCE ASSEMBLIES\MICROSOFT\FRAMEWORK\.NETFRAMEWORK\V4.6.1\SYSTEM.DATA.DLL
E:\PROJELERRR\N_ZOOM\N_ZOOM\X64\DEBUG\N_ZOOM.TLOG\METAGEN.WRITE.1.TLOG
^C:\PROGRAM FILES (X86)\REFERENCE ASSEMBLIES\MICROSOFT\FRAMEWORK\.NETFRAMEWORK\V4.6.1\SYSTEM.DLL
E:\PROJELERRR\N_ZOOM\N_ZOOM\X64\DEBUG\N_ZOOM.TLOG\METAGEN.WRITE.1.TLOG
^C:\PROGRAM FILES (X86)\REFERENCE ASSEMBLIES\MICROSOFT\FRAMEWORK\.NETFRAMEWORK\V4.6.1\SYSTEM.DRAWING.DLL
E:\PROJELERRR\N_ZOOM\N_ZOOM\X64\DEBUG\N_ZOOM.TLOG\METAGEN.WRITE.1.TLOG
^C:\PROGRAM FILES (X86)\REFERENCE ASSEMBLIES\MICROSOFT\FRAMEWORK\.NETFRAMEWORK\V4.6.1\SYSTEM.WINDOWS.FORMS.DATAVISUALIZATION.DLL
E:\PROJELERRR\N_ZOOM\N_ZOOM\X64\DEBUG\N_ZOOM.TLOG\METAGEN.WRITE.1.TLOG
^C:\PROGRAM FILES (X86)\REFERENCE ASSEMBLIES\MICROSOFT\FRAMEWORK\.NETFRAMEWORK\V4.6.1\SYSTEM.WINDOWS.FORMS.DLL
E:\PROJELERRR\N_ZOOM\N_ZOOM\X64\DEBUG\N_ZOOM.TLOG\METAGEN.WRITE.1.TLOG
^C:\PROGRAM FILES (X86)\REFERENCE ASSEMBLIES\MICROSOFT\FRAMEWORK\.NETFRAMEWORK\V4.6.1\SYSTEM.XML.DLL
E:\PROJELERRR\N_ZOOM\N_ZOOM\X64\DEBUG\N_ZOOM.TLOG\METAGEN.WRITE.1.TLOG
^C:\WINDOWS\MICROSOFT.NET\FRAMEWORK\V4.0.30319\MSCORLIB.DLL
E:\PROJELERRR\N_ZOOM\N_ZOOM\X64\DEBUG\N_ZOOM.TLOG\METAGEN.WRITE.1.TLOG
